scripts/00-simulate_data.R
…
    "Avg Num of Violations per Highrise" = sample(
      x = c("<10", "10 to 20", ">20"),
      size = 25,
      replace = TRUE
    ),
    "Total Num of Violations" =
      sample(100:500, 25, replace = TRUE),
    "Num of Highrises w/ Violations" =  
      sample(0:200, 25, replace = TRUE),
    "Highrises" =  
      sample(0:150, 25, replace = TRUE),
  )
simulated_data

# A tibble: 25 × 5
    Ward Avg Num of Violations p…¹ Total Num of Violati…² Num of Highrises w/ …³
   <int> <chr>                                      <int>                  <int>
 1     1 10 to 20                                     308                    179
 2     2 >20                                          280                     96
 3     3 10 to 20                                     169                    113
 4     4 10 to 20                                     200                    136
 5     5 10 to 20                                     449                    148
 6     6 10 to 20                                     185                     17
 7     7 <10                                          274                     55
 8     8 10 to 20                                     310                     70
 9     9 <10                                          352                    149
10    10 10 to 20                                     321                     50
# ℹ 15 more rows
# ℹ abbreviated names: ¹​`Avg Num of Violations per Highrise`,
#   ²​`Total Num of Violations`, ³​`Num of Highrises w/ Violations`
# ℹ 1 more variable: Highrises <int>
…
simulate_data <-
  tibble(
    # Use 1 through to 25 to represent each ward
    "Ward" = 1:25,
    # Randomly pick an option, with replacement, 25 times
    "Median Income Household" =
      sample(70000:100000, 25, replace = TRUE),
    "Median Income Individual" =
      sample(30000:60000, 25, replace = TRUE),
  )
simulate_data

# A tibble: 25 × 3
    Ward `Median Income Household` `Median Income Individual`
   <int>                     <int>                      <int>
 1     1                     87393                      58934
 2     2                     88290                      53235
 3     3                     81081                      57211
 4     4                     92457                      30587
 5     5                     89657                      50130
 6     6                     91353                      37568
 7     7                     79212                      43579
 8     8                     70017                      48539
 9     9                     91431                      40420
10    10                     93384                      37237
# ℹ 15 more rows
…
simulated_data_x

# A tibble: 25 × 6
    Ward `Avg Num of Violations per Highrise` Num of Highrises w/ Vi…¹ Highrises
   <int> <chr>                                                   <int>     <int>
 1     1 10 to 20                                                  180        96
 2     2 >20                                                        69        17
 3     3 10 to 20                                                  100        54
 4     4 10 to 20                                                   93        11
 5     5 10 to 20                                                   85        10
 6     6 10 to 20                                                  174       109
 7     7 <10                                                        15        40
 8     8 10 to 20                                                   90        99
 9     9 <10                                                        95        67
10    10 10 to 20                                                  169       117
# ℹ 15 more rows
# ℹ abbreviated name: ¹​`Num of Highrises w/ Violations`
# ℹ 2 more variables: `Median Income Household` <int>,
#   `Median Income Individual` <int>
…
