Highrises with 10 or more fire inspection violations in Ward 1
…
# A tibble: 1 × 11
  title             id    topics civic_issues publisher excerpt dataset_category
  <chr>             <chr> <chr>  <chr>        <chr>     <chr>   <chr>           
1 Highrise Residen… f816… Publi… <NA>         Fire Ser… Listin… Table           
# ℹ 4 more variables: num_resources <int>, formats <chr>, refresh_rate <chr>,
#   last_refreshed <date>

resources <- list_package_resources("f816b362-778a-4480-b9ed-9b240e0fe9c2")
datastore_resources <- filter(resources, tolower(format) %in% c('csv', 'geojson'))
highrise_fire_inspection_data <- filter(datastore_resources, row_number()==1) %>% get_resource()
highrise_fire_inspection_data

# A tibble: 32,000 × 13
   `_id` PropertyAddress      ADDRESS_NUMBER ADDRESS_NAME Enforcement_Proceedi…¹
   <int> <chr>                <chr>          <chr>        <chr>                 
 1     1 75 Tandridge Cres    75             Tandridge    No                    
 2     2 108 Goodwood Park C… 108            Goodwood Pa… No                    
 3     3 33 Gabian Way        33             Gabian       No                    
 4     4 935 Sheppard Ave W   935            Sheppard     No                    
 5     5 88 Alton Towers Crcl 88             Alton Towers No                    
 6     6 39 Old Mill Rd       39             Old Mill     No                    
 7     7 25 Thunder Grv       25             Thunder      No                    
 8     8 25 Thunder Grv       25             Thunder      No                    
 9     9 25 Thunder Grv       25             Thunder      No                    
10    10 2755 Jane St         2755           Jane         No                    
# ℹ 31,990 more rows
# ℹ abbreviated name: ¹​Enforcement_Proceedings
# ℹ 8 more variables: PropertyType <chr>, propertyWard <chr>,
#   InspectionThread <chr>, INSPECTIONS_OPENDATE <chr>,
#   INSPECTIONS_CLOSEDDATE <chr>, VIOLATION_FIRE_CODE <chr>,
#   VIOLATIONS_ITEM_NUMBER <chr>, VIOLATION_DESCRIPTION <chr>
…
